#!/usr/bin/gnuplot

username=system('whoami;date');
set title username;
set terminal png
plot 'abalonesplit.data' using 2:3 index 0 title columnheader(1),'' using 2:3 index 1 title columnheader(1),'' using 2:3 index 2 title columnheader(1);

